Return melted data for each token in a whitespace-separated file — melt_table • meltr
…
    See also

    melt_fwf() to melt fixed width files where each column
is not separated by whitespace. melt_fwf() is also useful for reading
tabular data with non-standard formatting.  readr::read_table() is the
conventional way to read tabular data from whitespace-separated files.

    Examples

# One corner from http://www.masseyratings.com/cf/compare.htm
massey <- meltr_example("massey-rating.txt")
cat(readLines(massey))
#> UCC PAY LAZ KPK  RT   COF BIH DII ENG ACU Rank Team            Conf   1   1   1   1   1     1   1   1   1   1    1 Ohio St          B10    2   2   2   2   2     2   2   2   4   2    2 Oregon           P12    3   4   3   4   3     4   3   4   2   3    3 Alabama          SEC    4   3   4   3   4     3   5   3   3   4    4 TCU              B12    6   6   6   5   5     7   6   5   6  11    5 Michigan St      B10    7   7   7   6   7     6  11   8   7   8    6 Georgia          SEC    5   5   5   7   6     8   4   6   5   5    7 Florida St       ACC    8   8   9   9  10     5   7   7  10   7    8 Baylor           B12    9  11   8  13  11    11  12   9  14   9    9 Georgia Tech     ACC   13  10  13  11   8     9  10  11   9  10   10 Mississippi      SEC 
melt_table(massey)
#> # A tibble: 143 × 4
#>      row   col data_type value
#>    <dbl> <dbl> <chr>     <chr>
#>  1     1     1 character UCC  
#>  2     1     2 character PAY  
#>  3     1     3 character LAZ  
#>  4     1     4 character KPK  
#>  5     1     5 character RT   
#>  6     1     6 character COF  
#>  7     1     7 character BIH  
#>  8     1     8 character DII  
#>  9     1     9 character ENG  
#> 10     1    10 character ACU  
#> # … with 133 more rows
…
#> CONCORD                              04  88 12    90 11   90 11   83 16        CONCORD              78020203
#> CONCORD WAGON                        07  91 30            91 30                CONCORD WAGON        78020253
#> MATADOR COUPE                        05  97 14    97 14                        MATADOR COUPE        78020303
#> MATADOR SEDAN                        06 110 20           110 20                MATADOR SEDAN        78020353
#> MATADOR WAGON                        09 112 50           112 50                MATADOR WAGON        78020403
#> ASTON MARTIN                                                                   ASTON MARTIN         78040002
#> ASTON MARTIN                                                                   ASTON MARTIN         78040053
#> AUDI                                                                           AUDI                 78050002
#> FOX                                  03  84 11    84 11   84 11                FOX                  78050053
#> FOX WAGON                            07  83 40            83 40                FOX WAGON            78050103
#> 5000                                 04  90 15            90 15                5000                 78050153
#> AVANTI                                                                         AVANTI               78065002
#> AVANTI II                            02  75  8    75  8                        AVANTI II            78065053
melt_table(epa)
#> # A tibble: 240 × 4
#>      row   col data_type value       
#>    <dbl> <dbl> <chr>     <chr>       
#>  1     1     1 character "ALFA ROMEO"
#>  2     1     2 empty     ""          
#>  3     1     3 empty     ""          
#>  4     1     4 empty     ""          
#>  5     1     5 empty     ""          
#>  6     1     6 empty     ""          
#>  7     1     7 empty     ""          
#>  8     1     8 empty     ""          
#>  9     1     9 empty     ""          
#> 10     1    10 empty     ""          
#> # … with 230 more rows
…
