Melt a delimited file by chunks — melt_delim_chunked • meltr
…
    melt_delim_chunked() and the specialisations melt_csv_chunked(),
melt_csv2_chunked() and melt_tsv_chunked() read files by a chunk of rows
at a time, executing a given function on one chunk before reading the next.

    See also

    Other chunked:
callback

    Examples

# Cars with 3 gears
f <- function(x, pos) subset(x, data_type == "integer")
melt_csv_chunked(meltr_example("mtcars.csv"), DataFrameCallback$new(f), chunk_size = 5)
#> # A tibble: 218 × 4
#>      row   col data_type value
#>    <dbl> <dbl> <chr>     <chr>
#>  1     2     1 integer   21   
#>  2     2     2 integer   6    
#>  3     2     3 integer   160  
#>  4     2     4 integer   110  
#>  5     2     8 integer   0    
#>  6     2     9 integer   1    
#>  7     2    10 integer   4    
#>  8     2    11 integer   4    
#>  9     3     1 integer   21   
#> 10     3     2 integer   6    
#> # ℹ 208 more rows
…
